Week 7: Regular Expressions and Web Scraping – PM 566
…
table <- xml_find_all(covid, xpath = '/html/body/div[2]/div/div[3]/main/div[3]/div[3]/div[1]/div[4]/table')
print(table) # collection of tables in XML

{xml_nodeset (1)}
[1] <table class="wikitable sortable sort-under static-row-numbers mw-datatab ...

Web scraping with xml2 and the rvest package (cont. 3)

We’re getting closer!

table <- html_table(table) 
print(table) # list of tibbles

[[1]]
# A tibble: 240 × 4
   Country                `Deaths / million` Deaths    Cases      
   <chr>                  <chr>              <chr>     <chr>      
 1 World[a]               892                7,099,056 778,402,651
 2 Peru                   6,603              221,060   4,532,707  
 3 Bulgaria               5,679              38,766    1,338,533  
 4 North Macedonia        5,429              9,991     352,093    
 5 Bosnia and Herzegovina 5,119              16,406    404,289    
 6 Hungary                5,072              49,124    2,238,102  
 7 Croatia                4,807              18,784    1,357,545  
 8 Slovenia               4,687              9,914     1,363,390  
 9 Georgia                4,519              17,151    1,864,385  
10 Montenegro             4,318              2,654     251,280    
# ℹ 230 more rows

Web scraping with xml2 and the rvest package (cont. 4)

There it is!

table <- table[[1]]
print(table) # hooray!

# A tibble: 240 × 4
   Country                `Deaths / million` Deaths    Cases      
   <chr>                  <chr>              <chr>     <chr>      
 1 World[a]               892                7,099,056 778,402,651
 2 Peru                   6,603              221,060   4,532,707  
 3 Bulgaria               5,679              38,766    1,338,533  
 4 North Macedonia        5,429              9,991     352,093    
 5 Bosnia and Herzegovina 5,119              16,406    404,289    
 6 Hungary                5,072              49,124    2,238,102  
 7 Croatia                4,807              18,784    1,357,545  
 8 Slovenia               4,687              9,914     1,363,390  
 9 Georgia                4,519              17,151    1,864,385  
10 Montenegro             4,318              2,654     251,280    
# ℹ 230 more rows
…
