PM 566 – Week 6: Text Mining
…
Alternatives:

R: quanteda, tm, koRpus

Python: nltk, Spacy, gensim

Alice’s Adventures in Wonderland

Download the alice dataset from https://github.com/USCbiostats/PM566/blob/main/data/alice.rds)

library(tidyverse)
alice <- readRDS("../data/alice.rds") # "~/Downloads/alice.rds"
alice

# A tibble: 3,351 × 3
   text                                                     chapter chapter_name
   <chr>                                                      <int> <chr>       
 1 "CHAPTER I."                                                   1 CHAPTER I.  
 2 "Down the Rabbit-Hole"                                         1 CHAPTER I.  
 3 ""                                                             1 CHAPTER I.  
 4 ""                                                             1 CHAPTER I.  
 5 "Alice was beginning to get very tired of sitting by he…       1 CHAPTER I.  
 6 "bank, and of having nothing to do: once or twice she h…       1 CHAPTER I.  
 7 "the book her sister was reading, but it had no picture…       1 CHAPTER I.  
 8 "conversations in it, “and what is the use of a book,” …       1 CHAPTER I.  
 9 "“without pictures or conversations?”"                         1 CHAPTER I.  
10 ""                                                             1 CHAPTER I.  
# ℹ 3,341 more rows
…
Turning the data into a tidy format

library(tidytext)
alice |>
  unnest_tokens(token, text)

# A tibble: 26,687 × 3
   chapter chapter_name token    
     <int> <chr>        <chr>    
 1       1 CHAPTER I.   chapter  
 2       1 CHAPTER I.   i        
 3       1 CHAPTER I.   down     
 4       1 CHAPTER I.   the      
 5       1 CHAPTER I.   rabbit   
 6       1 CHAPTER I.   hole     
 7       1 CHAPTER I.   alice    
 8       1 CHAPTER I.   was      
 9       1 CHAPTER I.   beginning
10       1 CHAPTER I.   to       
# ℹ 26,677 more rows

Words as a unit

Now that we have words as the observation unit we can use the dplyr toolbox.

Using dplyr verbs

library(dplyr)
alice |>
  unnest_tokens(token, text)

# A tibble: 26,687 × 3
   chapter chapter_name token    
     <int> <chr>        <chr>    
 1       1 CHAPTER I.   chapter  
 2       1 CHAPTER I.   i        
 3       1 CHAPTER I.   down     
 4       1 CHAPTER I.   the      
 5       1 CHAPTER I.   rabbit   
 6       1 CHAPTER I.   hole     
 7       1 CHAPTER I.   alice    
 8       1 CHAPTER I.   was      
 9       1 CHAPTER I.   beginning
10       1 CHAPTER I.   to       
# ℹ 26,677 more rows

Using dplyr verbs

library(dplyr)
alice |>
  unnest_tokens(token, text) |>
  count(token)

# A tibble: 2,740 × 2
   token        n
   <chr>    <int>
 1 _alice’s     1
 2 _all         1
 3 _all_        1
 4 _and         1
 5 _are_        4
 6 _at          1
 7 _before      1
 8 _beg_        1
 9 _began_      1
10 _best_       2
# ℹ 2,730 more rows

Using dplyr verbs

library(dplyr)
alice |>
  unnest_tokens(token, text) |>
  count(token, sort = TRUE)

# A tibble: 2,740 × 2
   token     n
   <chr> <int>
 1 the    1643
 2 and     871
 3 to      729
 4 a       632
 5 she     538
 6 it      527
 7 of      514
 8 said    460
 9 i       393
10 alice   386
# ℹ 2,730 more rows

Using dplyr verbs

library(dplyr)
alice |>
  unnest_tokens(token, text) |>
  count(chapter, token)

# A tibble: 7,549 × 3
   chapter token            n
     <int> <chr>        <int>
 1       1 _curtseying_     1
 2       1 _never_          1
 3       1 _not_            1
 4       1 _one_            1
 5       1 _poison_         1
 6       1 _that_           1
 7       1 _through_        1
 8       1 _took            1
 9       1 _very_           4
10       1 _was_            1
# ℹ 7,539 more rows

Using dplyr verbs

library(dplyr)
alice |>
  unnest_tokens(token, text) |>
  group_by(chapter) |>
  count(token) |>
  top_n(10, n)

# A tibble: 122 × 3
# Groups:   chapter [12]
   chapter token     n
     <int> <chr> <int>
 1       1 a        52
 2       1 alice    27
 3       1 and      65
 4       1 i        30
 5       1 it       62
 6       1 of       43
 7       1 she      79
 8       1 the      92
 9       1 to       75
10       1 was      52
# ℹ 112 more rows
…
Stop words

A lot of the words don’t tell us very much. Words such as “the”, “and”, “at” and “for” appear a lot in English text but doesn’t add much to the context.

Words such as these are called stop words

For more information about differences in stop words and when to remove them read this chapter: https://smltar.com/stopwords

Stop words in tidytext

tidytext comes with a built-in data.frame of stop words

stop_words

# A tibble: 1,149 × 2
   word        lexicon
   <chr>       <chr>  
 1 a           SMART  
 2 a's         SMART  
 3 able        SMART  
 4 about       SMART  
 5 above       SMART  
 6 according   SMART  
 7 accordingly SMART  
 8 across      SMART  
 9 actually    SMART  
10 after       SMART  
# ℹ 1,139 more rows
…
Removing stopwords

We can use an anti_join() to remove the tokens that also appear in the stop_words data.frame

alice |>
  unnest_tokens(token, text) |>
  anti_join(stop_words, by = c("token" = "word")) |>
  count(token, sort = TRUE)

# A tibble: 2,314 × 2
   token       n
   <chr>   <int>
 1 alice     386
 2 time       71
 3 queen      68
 4 king       61
 5 don’t      60
 6 it’s       57
 7 i’m        56
 8 mock       56
 9 turtle     56
10 gryphon    55
# ℹ 2,304 more rows

Anti-join with same variable name

alice |>
  unnest_tokens(word, text) |>
  anti_join(stop_words, by = c("word")) |>
  count(word, sort = TRUE)

# A tibble: 2,314 × 2
   word        n
   <chr>   <int>
 1 alice     386
 2 time       71
 3 queen      68
 4 king       61
 5 don’t      60
 6 it’s       57
 7 i’m        56
 8 mock       56
 9 turtle     56
10 gryphon    55
# ℹ 2,304 more rows
…
ngrams with n = 1 are called “unigrams”: “which”, “words”, “appear”, “together”

ngrams with n = 2 are called “bigrams”: “which words”, “words appear”, “appear together”

ngrams with n = 3 are called “trigrams”: “which words appear”, “words appear together”

Which words appear together?

We can extract bigrams using unnest_ngrams() with n = 2

alice |>
  unnest_ngrams(ngram, text, n = 2)

# A tibble: 25,170 × 3
   chapter chapter_name ngram        
     <int> <chr>        <chr>        
 1       1 CHAPTER I.   chapter i    
 2       1 CHAPTER I.   down the     
 3       1 CHAPTER I.   the rabbit   
 4       1 CHAPTER I.   rabbit hole  
 5       1 CHAPTER I.   <NA>         
 6       1 CHAPTER I.   <NA>         
 7       1 CHAPTER I.   alice was    
 8       1 CHAPTER I.   was beginning
 9       1 CHAPTER I.   beginning to 
10       1 CHAPTER I.   to get       
# ℹ 25,160 more rows

Which words appear together?

Tallying up the bigrams still shows a lot of stop words, but it is able to pick up some common phrases:

alice |>
  unnest_ngrams(ngram, text, n = 2) |>
  count(ngram, sort = TRUE)

# A tibble: 13,424 × 2
   ngram          n
   <chr>      <int>
 1 <NA>         951
 2 said the     206
 3 of the       130
 4 said alice   112
 5 in a          96
 6 and the       75
 7 in the        75
 8 it was        72
 9 to the        68
10 the queen     60
# ℹ 13,414 more rows

Which words appear together?

alice |>
  unnest_ngrams(ngram, text, n = 2) |>
  separate(ngram, into = c("word1", "word2"), sep = " ") |>
  select(word1, word2)

# A tibble: 25,170 × 2
   word1     word2    
   <chr>     <chr>    
 1 chapter   i        
 2 down      the      
 3 the       rabbit   
 4 rabbit    hole     
 5 <NA>      <NA>     
 6 <NA>      <NA>     
 7 alice     was      
 8 was       beginning
 9 beginning to       
10 to        get      
# ℹ 25,160 more rows

alice |>
  unnest_ngrams(ngram, text, n = 2) |>
  separate(ngram, into = c("word1", "word2"), sep = " ") |>
  select(word1, word2) |>
  filter(word1 == "alice")

# A tibble: 336 × 2
   word1 word2  
   <chr> <chr>  
 1 alice was    
 2 alice think  
 3 alice started
 4 alice after  
 5 alice had    
 6 alice to     
 7 alice had    
 8 alice had    
 9 alice soon   
10 alice began  
# ℹ 326 more rows

What about when the first word is “alice”?

alice |>
  unnest_ngrams(ngram, text, n = 2) |>
  separate(ngram, into = c("word1", "word2"), sep = " ") |>
  select(word1, word2) |>
  filter(word1 == "alice") |>
  count(word2, sort = TRUE)

# A tibble: 133 × 2
   word2       n
   <chr>   <int>
 1 and        18
 2 was        17
 3 thought    12
 4 as         11
 5 said       11
 6 could      10
 7 had        10
 8 did         9
 9 in          9
10 to          9
# ℹ 123 more rows

What about when the second word is “alice”?

alice |>
  unnest_ngrams(ngram, text, n = 2) |>
  separate(ngram, into = c("word1", "word2"), sep = " ") |>
  select(word1, word2) |>
  filter(word2 == "alice") |>
  count(word1, sort = TRUE)

# A tibble: 106 × 2
   word1         n
   <chr>     <int>
 1 said        112
 2 thought      25
 3 to           22
 4 and          15
 5 poor         11
 6 cried         7
 7 at            6
 8 so            6
 9 that          5
10 exclaimed     3
# ℹ 96 more rows
…
TF: Term frequency

IDF: Inverse document frequency

TF-IDF: product of TF and IDF

TF gives weight to terms that appear a lot, IDF gives weight to terms that appears in a few documents

TF-IDF with tidytext

alice |>
  unnest_tokens(text, text)

# A tibble: 26,687 × 3
   text      chapter chapter_name
   <chr>       <int> <chr>       
 1 chapter         1 CHAPTER I.  
 2 i               1 CHAPTER I.  
 3 down            1 CHAPTER I.  
 4 the             1 CHAPTER I.  
 5 rabbit          1 CHAPTER I.  
 6 hole            1 CHAPTER I.  
 7 alice           1 CHAPTER I.  
 8 was             1 CHAPTER I.  
 9 beginning       1 CHAPTER I.  
10 to              1 CHAPTER I.  
# ℹ 26,677 more rows

TF-IDF with tidytext

alice |>
  unnest_tokens(text, text) |>
  count(text, chapter)

# A tibble: 7,549 × 3
   text     chapter     n
   <chr>      <int> <int>
 1 _alice’s       2     1
 2 _all          12     1
 3 _all_         12     1
 4 _and           9     1
 5 _are_          4     1
 6 _are_          6     1
 7 _are_          8     1
 8 _are_          9     1
 9 _at            9     1
10 _before       12     1
# ℹ 7,539 more rows

TF-IDF with tidytext

alice |>
  unnest_tokens(text, text) |>
  count(text, chapter) |>
  bind_tf_idf(text, chapter, n)

# A tibble: 7,549 × 6
   text     chapter     n       tf   idf   tf_idf
   <chr>      <int> <int>    <dbl> <dbl>    <dbl>
 1 _alice’s       2     1 0.000471  2.48 0.00117 
 2 _all          12     1 0.000468  2.48 0.00116 
 3 _all_         12     1 0.000468  2.48 0.00116 
 4 _and           9     1 0.000435  2.48 0.00108 
 5 _are_          4     1 0.000375  1.10 0.000411
 6 _are_          6     1 0.000382  1.10 0.000420
 7 _are_          8     1 0.000400  1.10 0.000439
 8 _are_          9     1 0.000435  1.10 0.000478
 9 _at            9     1 0.000435  2.48 0.00108 
10 _before       12     1 0.000468  2.48 0.00116 
# ℹ 7,539 more rows

TF-IDF with tidytext

alice |>
  unnest_tokens(text, text) |>
  count(text, chapter) |>
  bind_tf_idf(text, chapter, n) |>
  arrange(desc(tf_idf))

# A tibble: 7,549 × 6
   text        chapter     n      tf   idf tf_idf
   <chr>         <int> <int>   <dbl> <dbl>  <dbl>
 1 dormouse          7    26 0.0112   1.79 0.0201
 2 hatter            7    32 0.0138   1.39 0.0191
 3 mock             10    28 0.0136   1.39 0.0189
 4 turtle           10    28 0.0136   1.39 0.0189
 5 gryphon          10    31 0.0151   1.10 0.0166
 6 turtle            9    27 0.0117   1.39 0.0163
 7 caterpillar       5    25 0.0115   1.39 0.0159
 8 dance            10    13 0.00632  2.48 0.0157
 9 mock              9    26 0.0113   1.39 0.0157
10 hatter           11    21 0.0110   1.39 0.0153
# ℹ 7,539 more rows
…
afinn from Finn Årup Nielsen

bing from Bing Liu and collaborators

nrc from Saif Mohammad and Peter Turney

Sentiment Lexicons - bing

The bing lexicon contains a large list of words and a binary association, either “positive” or “negative”:

library(textdata)
get_sentiments('bing')

# A tibble: 6,786 × 2
   word        sentiment
   <chr>       <chr>    
 1 2-faces     negative 
 2 abnormal    negative 
 3 abolish     negative 
 4 abominable  negative 
 5 abominably  negative 
 6 abominate   negative 
 7 abomination negative 
 8 abort       negative 
 9 aborted     negative 
10 aborts      negative 
# ℹ 6,776 more rows

Sentiment Lexicons - afinn

The afinn lexicon goes slightly further, assigning words a value between -5 and 5 that represents their positivity or negativity.

get_sentiments('afinn')

# A tibble: 2,477 × 2
   word       value
   <chr>      <dbl>
 1 abandon       -2
 2 abandoned     -2
 3 abandons      -2
 4 abducted      -2
 5 abduction     -2
 6 abductions    -2
 7 abhor         -3
 8 abhorred      -3
 9 abhorrent     -3
10 abhors        -3
# ℹ 2,467 more rows

Sentiment Lexicons - nrc

The nrc lexicon takes a different approach and assigns each word an associated sentiment. Some words appear more than once because they have multiple associations:

get_sentiments('nrc')

# A tibble: 13,872 × 2
   word        sentiment
   <chr>       <chr>    
 1 abacus      trust    
 2 abandon     fear     
 3 abandon     negative 
 4 abandon     sadness  
 5 abandoned   anger    
 6 abandoned   fear     
 7 abandoned   negative 
 8 abandoned   sadness  
 9 abandonment anger    
10 abandonment fear     
# ℹ 13,862 more rows

Sentiment Analysis

We can use one of these databases to analyze Alice’s Adventures in Wonderland by breaking the text down into words and combining the result with a lexicon. Let’s use bing to assign “positive” and “negative” labels to as many words as possible in the book. (Note that this time the variable created by unnest_tokens is called word, to match the column name in bing).

alice |>
  unnest_tokens(word, text) |>
  inner_join(get_sentiments("bing"))

# A tibble: 1,409 × 4
   chapter chapter_name word        sentiment
     <int> <chr>        <chr>       <chr>    
 1       1 CHAPTER I.   tired       negative 
 2       1 CHAPTER I.   well        positive 
 3       1 CHAPTER I.   hot         positive 
 4       1 CHAPTER I.   stupid      negative 
 5       1 CHAPTER I.   pleasure    positive 
 6       1 CHAPTER I.   worth       positive 
 7       1 CHAPTER I.   trouble     negative 
 8       1 CHAPTER I.   remarkable  positive 
 9       1 CHAPTER I.   burning     negative 
10       1 CHAPTER I.   fortunately positive 
# ℹ 1,399 more rows
…
