Text Mining
…
```
## Using mirror http://aleph.gutenberg.org
```

---

# Turning the data into a tidy format

```r
alice
```

```
## # A tibble: 3,330 x 3
##    text                                                            chapter chapter_name      
##    <chr>                                                             <int> <chr>             
##  1 "CHAPTER I. Down the Rabbit-Hole"                                     1 Down the Rabbit-H…
##  2 ""                                                                    1 Down the Rabbit-H…
##  3 "Alice was beginning to get very tired of sitting by her siste…       1 Down the Rabbit-H…
##  4 "bank, and of having nothing to do: once or twice she had peep…       1 Down the Rabbit-H…
##  5 "book her sister was reading, but it had no pictures or conver…       1 Down the Rabbit-H…
##  6 "it, 'and what is the use of a book,' thought Alice 'without p…       1 Down the Rabbit-H…
##  7 "conversations?'"                                                     1 Down the Rabbit-H…
##  8 ""                                                                    1 Down the Rabbit-H…
##  9 "So she was considering in her own mind (as well as she could,…       1 Down the Rabbit-H…
## 10 "hot day made her feel very sleepy and stupid), whether the pl…       1 Down the Rabbit-H…
## # … with 3,320 more rows
```

---

# Turning the data into a tidy format

```r
library(tidytext)
alice %>%
  unnest_tokens(token, text)
```

```
## # A tibble: 26,683 x 3
##    chapter chapter_name         token    
##      <int> <chr>                <chr>    
##  1       1 Down the Rabbit-Hole chapter  
##  2       1 Down the Rabbit-Hole i        
##  3       1 Down the Rabbit-Hole down     
##  4       1 Down the Rabbit-Hole the      
##  5       1 Down the Rabbit-Hole rabbit   
##  6       1 Down the Rabbit-Hole hole     
##  7       1 Down the Rabbit-Hole alice    
##  8       1 Down the Rabbit-Hole was      
##  9       1 Down the Rabbit-Hole beginning
## 10       1 Down the Rabbit-Hole to       
## # … with 26,673 more rows
```
…
```
## The following objects are masked from 'package:stats':
## 
##     filter, lag
```

```
## The following objects are masked from 'package:base':
## 
##     intersect, setdiff, setequal, union
```

```
## # A tibble: 26,683 x 3
##    chapter chapter_name         token    
##      <int> <chr>                <chr>    
##  1       1 Down the Rabbit-Hole chapter  
##  2       1 Down the Rabbit-Hole i        
##  3       1 Down the Rabbit-Hole down     
##  4       1 Down the Rabbit-Hole the      
##  5       1 Down the Rabbit-Hole rabbit   
##  6       1 Down the Rabbit-Hole hole     
##  7       1 Down the Rabbit-Hole alice    
##  8       1 Down the Rabbit-Hole was      
##  9       1 Down the Rabbit-Hole beginning
## 10       1 Down the Rabbit-Hole to       
## # … with 26,673 more rows
```
…
.pull-left[

```r
library(dplyr)
alice %>%
  unnest_tokens(token, text) %>%
  count(token)
```
]

.pull-right[

```
## # A tibble: 2,628 x 2
##    token          n
##    <chr>      <int>
##  1 _i_            2
##  2 a            632
##  3 abide          1
##  4 able           1
##  5 about         94
##  6 above          3
##  7 absence        1
##  8 absurd         2
##  9 acceptance     1
## 10 accident       2
## # … with 2,618 more rows
```
…
.pull-left[

```r
library(dplyr)
alice %>%
  unnest_tokens(token, text) %>%
  count(token, sort = TRUE)
```
]

.pull-right[

```
## # A tibble: 2,628 x 2
##    token     n
##    <chr> <int>
##  1 the    1643
##  2 and     872
##  3 to      729
##  4 a       632
##  5 she     541
##  6 it      530
##  7 of      514
##  8 said    462
##  9 i       408
## 10 alice   386
## # … with 2,618 more rows
```
…
.pull-left[

```r
library(dplyr)
alice %>%
  unnest_tokens(token, text) %>%
  count(chapter, token)
```
]

.pull-right[

```
## # A tibble: 7,370 x 3
##    chapter token          n
##      <int> <chr>      <int>
##  1       1 a             52
##  2       1 about          8
##  3       1 across         2
##  4       1 actually       1
##  5       1 advice         1
##  6       1 advise         1
##  7       1 afraid         1
##  8       1 after          5
##  9       1 afterwards     1
## 10       1 again          4
## # … with 7,360 more rows
```
…
```r
library(dplyr)
alice %>%
  unnest_tokens(token, text) %>%
  group_by(chapter) %>%
  count(token) %>%
  top_n(10, n)
```
]

.pull-right[

```
## # A tibble: 121 x 3
## # Groups:   chapter [12]
##    chapter token     n
##      <int> <chr> <int>
##  1       1 a        52
##  2       1 alice    27
##  3       1 and      65
##  4       1 i        30
##  5       1 it       62
##  6       1 of       43
##  7       1 she      79
##  8       1 the      92
##  9       1 to       75
## 10       1 was      53
## # … with 111 more rows
```
…
