Text Mining
…
alice <- alices_adventures()
```

---

# Alice's Adventures in Wonderland

```r
alice
```

```
## # A tibble: 3,330 x 3
##    text                                                                 chapter chapter_name       
##    <chr>                                                                  <int> <chr>              
##  1 "CHAPTER I. Down the Rabbit-Hole"                                          1 Down the Rabbit-Ho…
##  2 ""                                                                         1 Down the Rabbit-Ho…
##  3 "Alice was beginning to get very tired of sitting by her sister on …       1 Down the Rabbit-Ho…
##  4 "bank, and of having nothing to do: once or twice she had peeped in…       1 Down the Rabbit-Ho…
##  5 "book her sister was reading, but it had no pictures or conversatio…       1 Down the Rabbit-Ho…
##  6 "it, 'and what is the use of a book,' thought Alice 'without pictur…       1 Down the Rabbit-Ho…
##  7 "conversations?'"                                                          1 Down the Rabbit-Ho…
##  8 ""                                                                         1 Down the Rabbit-Ho…
##  9 "So she was considering in her own mind (as well as she could, for …       1 Down the Rabbit-Ho…
## 10 "hot day made her feel very sleepy and stupid), whether the pleasur…       1 Down the Rabbit-Ho…
## # … with 3,320 more rows
```
…
---

# Turning the data into a tidy format

```r
library(tidytext)
alice %>%
  unnest_tokens(token, text)
```

```
## # A tibble: 26,683 x 3
##    chapter chapter_name         token    
##      <int> <chr>                <chr>    
##  1       1 Down the Rabbit-Hole chapter  
##  2       1 Down the Rabbit-Hole i        
##  3       1 Down the Rabbit-Hole down     
##  4       1 Down the Rabbit-Hole the      
##  5       1 Down the Rabbit-Hole rabbit   
##  6       1 Down the Rabbit-Hole hole     
##  7       1 Down the Rabbit-Hole alice    
##  8       1 Down the Rabbit-Hole was      
##  9       1 Down the Rabbit-Hole beginning
## 10       1 Down the Rabbit-Hole to       
## # … with 26,673 more rows
```
…
# Using dplyr verbs

.pull-left[

```r
library(dplyr)
alice %>%
  unnest_tokens(token, text)
```
]

.pull-right[

```
## # A tibble: 26,683 x 3
##    chapter chapter_name         token    
##      <int> <chr>                <chr>    
##  1       1 Down the Rabbit-Hole chapter  
##  2       1 Down the Rabbit-Hole i        
##  3       1 Down the Rabbit-Hole down     
##  4       1 Down the Rabbit-Hole the      
##  5       1 Down the Rabbit-Hole rabbit   
##  6       1 Down the Rabbit-Hole hole     
##  7       1 Down the Rabbit-Hole alice    
##  8       1 Down the Rabbit-Hole was      
##  9       1 Down the Rabbit-Hole beginning
## 10       1 Down the Rabbit-Hole to       
## # … with 26,673 more rows
```
…
.pull-left[

```r
library(dplyr)
alice %>%
  unnest_tokens(token, text) %>%
  count(token)
```
]

.pull-right[

```
## # A tibble: 2,628 x 2
##    token          n
##    <chr>      <int>
##  1 _i_            2
##  2 a            632
##  3 abide          1
##  4 able           1
##  5 about         94
##  6 above          3
##  7 absence        1
##  8 absurd         2
##  9 acceptance     1
## 10 accident       2
## # … with 2,618 more rows
```
…
.pull-left[

```r
library(dplyr)
alice %>%
  unnest_tokens(token, text) %>%
  count(token, sort = TRUE)
```
]

.pull-right[

```
## # A tibble: 2,628 x 2
##    token     n
##    <chr> <int>
##  1 the    1643
##  2 and     872
##  3 to      729
##  4 a       632
##  5 she     541
##  6 it      530
##  7 of      514
##  8 said    462
##  9 i       408
## 10 alice   386
## # … with 2,618 more rows
```
…
.pull-left[

```r
library(dplyr)
alice %>%
  unnest_tokens(token, text) %>%
  count(chapter, token)
```
]

.pull-right[

```
## # A tibble: 7,370 x 3
##    chapter token          n
##      <int> <chr>      <int>
##  1       1 a             52
##  2       1 about          8
##  3       1 across         2
##  4       1 actually       1
##  5       1 advice         1
##  6       1 advise         1
##  7       1 afraid         1
##  8       1 after          5
##  9       1 afterwards     1
## 10       1 again          4
## # … with 7,360 more rows
```
…
```r
library(dplyr)
alice %>%
  unnest_tokens(token, text) %>%
  group_by(chapter) %>%
  count(token) %>%
  top_n(10, n)
```
]

.pull-right[

```
## # A tibble: 121 x 3
## # Groups:   chapter [12]
##    chapter token     n
##      <int> <chr> <int>
##  1       1 a        52
##  2       1 alice    27
##  3       1 and      65
##  4       1 i        30
##  5       1 it       62
##  6       1 of       43
##  7       1 she      79
##  8       1 the      92
##  9       1 to       75
## 10       1 was      53
## # … with 111 more rows
```
…
For more information about differences in stop words and when to remove them read this chapter https://smltar.com/stopwords

---

## Stop words in tidytext

tidytext comes with a data.frame of stop words

```r
stop_words
```

```
## # A tibble: 1,149 x 2
##    word        lexicon
##    <chr>       <chr>  
##  1 a           SMART  
##  2 a's         SMART  
##  3 able        SMART  
##  4 about       SMART  
##  5 above       SMART  
##  6 according   SMART  
##  7 accordingly SMART  
##  8 across      SMART  
##  9 actually    SMART  
## 10 after       SMART  
## # … with 1,139 more rows
```
…
.pull-left[

```r
alice %>%
  unnest_tokens(token, text) %>%
  anti_join(stop_words, by = c("token" = "word")) %>%
  count(token, sort = TRUE)
```
]

.pull-right[

```
## # A tibble: 2,159 x 2
##    token       n
##    <chr>   <int>
##  1 alice     386
##  2 time       71
##  3 queen      68
##  4 king       61
##  5 turtle     57
##  6 mock       56
##  7 gryphon    55
##  8 hatter     55
##  9 head       49
## 10 voice      48
## # … with 2,149 more rows
```
…
.pull-left[

```r
alice %>%
  unnest_tokens(word, text) %>%
  anti_join(stop_words, by = c("word")) %>%
  count(word, sort = TRUE)
```
]

.pull-right[

```
## # A tibble: 2,159 x 2
##    word        n
##    <chr>   <int>
##  1 alice     386
##  2 time       71
##  3 queen      68
##  4 king       61
##  5 turtle     57
##  6 mock       56
##  7 gryphon    55
##  8 hatter     55
##  9 head       49
## 10 voice      48
## # … with 2,149 more rows
```
…
---

## Which words appears together?

We can extract bigrams using `unnest_ngrams()` with `n = 2`

```r
alice %>%
  unnest_ngrams(ngram, text, n = 2)
```

```
## # A tibble: 26,671 x 3
##    chapter chapter_name         ngram        
##      <int> <chr>                <chr>        
##  1       1 Down the Rabbit-Hole chapter i    
##  2       1 Down the Rabbit-Hole i down       
##  3       1 Down the Rabbit-Hole down the     
##  4       1 Down the Rabbit-Hole the rabbit   
##  5       1 Down the Rabbit-Hole rabbit hole  
##  6       1 Down the Rabbit-Hole hole alice   
##  7       1 Down the Rabbit-Hole alice was    
##  8       1 Down the Rabbit-Hole was beginning
##  9       1 Down the Rabbit-Hole beginning to 
## 10       1 Down the Rabbit-Hole to get       
## # … with 26,661 more rows
```

---

# Which words appears together?

Tallying up the bi-grams still shows a lot of stop words but it able to pick up retationhips with patients

```r
alice %>%
  unnest_ngrams(ngram, text, n = 2) %>%
  count(ngram, sort = TRUE)
```

```
## # A tibble: 14,719 x 2
##    ngram          n
##    <chr>      <int>
##  1 said the     210
##  2 of the       133
##  3 said alice   116
##  4 in a          97
##  5 and the       82
##  6 in the        80
##  7 it was        76
##  8 to the        69
##  9 the queen     65
## 10 as she        61
## # … with 14,709 more rows
```

---

# Which words appears together?

```r
alice %>%
  unnest_ngrams(ngram, text, n = 2) %>%
  separate(ngram, into = c("word1", "word2"), sep = " ") %>%
  select(word1, word2)
```

```
## # A tibble: 26,671 x 2
##    word1     word2    
##    <chr>     <chr>    
##  1 chapter   i        
##  2 i         down     
##  3 down      the      
##  4 the       rabbit   
##  5 rabbit    hole     
##  6 hole      alice    
##  7 alice     was      
##  8 was       beginning
##  9 beginning to       
## 10 to        get      
## # … with 26,661 more rows
```

---

```r
alice %>%
  unnest_ngrams(ngram, text, n = 2) %>%
  separate(ngram, into = c("word1", "word2"), sep = " ") %>%
  select(word1, word2) %>%
  filter(word1 == "alice")
```

```
## # A tibble: 385 x 2
##    word1 word2  
##    <chr> <chr>  
##  1 alice was    
##  2 alice without
##  3 alice think  
##  4 alice started
##  5 alice after  
##  6 alice had    
##  7 alice to     
##  8 alice had    
##  9 alice had    
## 10 alice soon   
## # … with 375 more rows
```

---

```r
alice %>%
  unnest_ngrams(ngram, text, n = 2) %>%
  separate(ngram, into = c("word1", "word2"), sep = " ") %>%
  select(word1, word2) %>%
  filter(word1 == "alice") %>%
  count(word2, sort = TRUE)
```

```
## # A tibble: 149 x 2
##    word2       n
##    <chr>   <int>
##  1 and        20
##  2 was        17
##  3 thought    12
##  4 as         11
##  5 could      11
##  6 had        11
##  7 said       11
##  8 did        10
##  9 in          9
## 10 replied     9
## # … with 139 more rows
```

---

```r
alice %>%
  unnest_ngrams(ngram, text, n = 2) %>%
  separate(ngram, into = c("word1", "word2"), sep = " ") %>%
  select(word1, word2) %>%
  filter(word2 == "alice") %>%
  count(word1, sort = TRUE)
```

```
## # A tibble: 146 x 2
##    word1           n
##    <chr>       <int>
##  1 said          116
##  2 thought        26
##  3 to             23
##  4 and            16
##  5 poor           11
##  6 at              7
##  7 cried           7
##  8 so              6
##  9 that            5
## 10 caterpillar     3
## # … with 136 more rows
```
…
# TF-IDF with tidytext

.pull-left[

```r
alice %>%
  unnest_tokens(text, text)
```
]

.pull-right[

```
## # A tibble: 26,683 x 3
##    text      chapter chapter_name        
##    <chr>       <int> <chr>               
##  1 chapter         1 Down the Rabbit-Hole
##  2 i               1 Down the Rabbit-Hole
##  3 down            1 Down the Rabbit-Hole
##  4 the             1 Down the Rabbit-Hole
##  5 rabbit          1 Down the Rabbit-Hole
##  6 hole            1 Down the Rabbit-Hole
##  7 alice           1 Down the Rabbit-Hole
##  8 was             1 Down the Rabbit-Hole
##  9 beginning       1 Down the Rabbit-Hole
## 10 to              1 Down the Rabbit-Hole
## # … with 26,673 more rows
```
…
# TF-IDF with tidytext

.pull-left[

```r
alice %>%
  unnest_tokens(text, text) %>%
  count(text, chapter)
```
]

.pull-right[

```
## # A tibble: 7,370 x 3
##    text  chapter     n
##    <chr>   <int> <int>
##  1 _i_         2     1
##  2 _i_        12     1
##  3 a           1    52
##  4 a           2    48
##  5 a           3    48
##  6 a           4    72
##  7 a           5    59
##  8 a           6    72
##  9 a           7    49
## 10 a           8    56
## # … with 7,360 more rows
```
…
.pull-left[

```r
alice %>%
  unnest_tokens(text, text) %>%
  count(text, chapter) %>%
  bind_tf_idf(text, chapter, n)
```
]

.pull-right[

```
## # A tibble: 7,370 x 6
##    text  chapter     n       tf   idf   tf_idf
##    <chr>   <int> <int>    <dbl> <dbl>    <dbl>
##  1 _i_         2     1 0.000471  1.79 0.000843
##  2 _i_        12     1 0.000468  1.79 0.000838
##  3 a           1    52 0.0240    0    0       
##  4 a           2    48 0.0226    0    0       
##  5 a           3    48 0.0280    0    0       
##  6 a           4    72 0.0270    0    0       
##  7 a           5    59 0.0271    0    0       
##  8 a           6    72 0.0275    0    0       
##  9 a           7    49 0.0211    0    0       
## 10 a           8    56 0.0224    0    0       
## # … with 7,360 more rows
```
…
.pull-left[

```r
alice %>%
  unnest_tokens(text, text) %>%
  count(text, chapter) %>%
  bind_tf_idf(text, chapter, n) %>%
  arrange(desc(tf_idf))
```
]

.pull-right[

```
## # A tibble: 7,370 x 6
##    text        chapter     n      tf   idf tf_idf
##    <chr>         <int> <int>   <dbl> <dbl>  <dbl>
##  1 dormouse          7    26 0.0112   1.79 0.0201
##  2 turtle           10    29 0.0141   1.39 0.0196
##  3 hatter            7    32 0.0138   1.39 0.0191
##  4 mock             10    28 0.0136   1.39 0.0189
##  5 gryphon          10    31 0.0151   1.10 0.0166
##  6 turtle            9    27 0.0117   1.39 0.0163
##  7 caterpillar       5    25 0.0115   1.39 0.0159
##  8 dance            10    13 0.00632  2.48 0.0157
##  9 mock              9    26 0.0113   1.39 0.0157
## 10 hatter           11    21 0.0110   1.39 0.0153
## # … with 7,360 more rows
```
…
